0, 210
1, 8
2, 23
3, 4
4, 5
5, 3
6, 2
7, 1
9, 4
10, 8
11, 3
12, 4
13, 3
14, 1
17, 2
18, 1
19, 2
20, 3
22, 2
23, 1
24, 2
25, 2
26, 1
28, 1
31, 1
34, 1
35, 1
37, 1
39, 1
40, 1
43, 1
45, 1
49, 1
52, 1
57, 1
61, 2
64, 1
71, 1
76, 1
136, 1
avg, 3.79872
