0, 7121
1, 9
2, 27
3, 5
4, 5
5, 3
6, 2
7, 1
9, 5
10, 9
11, 4
12, 3
13, 3
14, 2
17, 3
18, 1
19, 1
20, 3
22, 3
24, 1
25, 3
26, 2
29, 1
34, 2
35, 1
37, 1
38, 1
40, 1
43, 1
45, 1
49, 1
52, 1
57, 1
61, 2
64, 1
76, 1
136, 1
avg, 0.147104
