0, 7122
1, 18
2, 24
3, 7
4, 1
5, 4
6, 2
7, 10
8, 6
9, 6
10, 1
11, 2
12, 3
13, 1
14, 1
15, 2
16, 2
18, 4
19, 1
22, 1
23, 2
24, 2
25, 1
27, 1
28, 2
33, 1
36, 1
41, 2
44, 1
50, 1
113, 1
avg, 0.0883451
perc, 60.0564
